<svg width="626" height="445" viewBox="0 0 626 445" fill="none" xmlns="http://www.w3.org/2000/svg">
<g filter="url(#filter0_d_120_1744)">
<rect x="74" y="70" width="478" height="297" rx="12" fill="#FF7900"/>
<rect x="74.5" y="70.5" width="477" height="296" rx="11.5" stroke="#894416"/>
</g>
<rect x="85.5" y="81.5" width="455" height="274" rx="9.5" fill="#FFD7A3" stroke="#894416"/>
<rect x="99" y="92" width="428" height="253" rx="7" fill="#FFD7A3" stroke="#B57649" stroke-width="2" stroke-dasharray="7 7"/>
<defs>
<filter id="filter0_d_120_1744" x="0" y="0" width="626" height="445" filterUnits="userSpaceOnUse" color-interpolation-filters="sRGB">
<feFlood flood-opacity="0" result="BackgroundImageFix"/>
<feColorMatrix in="SourceAlpha" type="matrix" values="0 0 0 0 0 0 0 0 0 0 0 0 0 0 0 0 0 0 127 0" result="hardAlpha"/>
<feOffset dy="4"/>
<feGaussianBlur stdDeviation="37"/>
<feComposite in2="hardAlpha" operator="out"/>
<feColorMatrix type="matrix" values="0 0 0 0 0 0 0 0 0 0 0 0 0 0 0 0 0 0 0.35 0"/>
<feBlend mode="normal" in2="BackgroundImageFix" result="effect1_dropShadow_120_1744"/>
<feBlend mode="normal" in="SourceGraphic" in2="effect1_dropShadow_120_1744" result="shape"/>
</filter>
</defs>
</svg>
