<svg width="334" height="111" viewBox="0 0 334 111" fill="none" xmlns="http://www.w3.org/2000/svg">
<path opacity="0.11" d="M315.631 110.7H18.1564C8.27931 110.7 0 100.776 0 83.3243V19.8472C0 13.1744 8.13406 3.42188 18.1564 3.42188H315.631C325.508 3.42188 333.787 13.3455 333.787 19.8472V83.3243C333.642 100.776 325.508 110.7 315.631 110.7Z" fill="#767676"/>
<path d="M311.011 102.145H24.4301C14.8436 102.145 7 92.9057 7 76.4804V17.1097C7 10.9502 14.8436 1.71094 24.4301 1.71094H311.011C320.597 1.71094 328.441 10.9502 328.441 17.1097V76.4804C328.441 92.9057 320.597 102.145 311.011 102.145Z" fill="url(#paint0_linear_202_18970)"/>
<path opacity="0.1" d="M327.251 69.6367C327.251 69.6367 289.631 82.8111 179.967 83.1533C70.3019 83.4955 7.98914 69.6367 7.98914 69.6367C7.55339 69.6367 7.2629 69.6367 6.82715 69.6367V81.6135C6.82715 92.9059 14.6707 102.145 24.2573 102.145H310.838C320.424 102.145 328.268 92.9059 328.268 81.6135V69.6367C327.977 69.6367 327.687 69.6367 327.251 69.6367Z" fill="#033A00"/>
<path opacity="0.15" d="M8.27947 34.048C8.27947 34.048 45.8995 20.8735 155.564 20.5313C265.229 20.1891 327.541 34.048 327.541 34.048C327.977 34.048 328.268 34.048 328.703 34.048V22.0712C328.703 10.7788 320.86 1.53955 311.273 1.53955H24.6928C15.1063 1.53955 7.2627 10.7788 7.2627 22.0712V34.048C7.5532 34.048 7.98897 34.048 8.27947 34.048Z" fill="#F2F2F2"/>
<path d="M310.982 103.856H24.4017C13.9436 103.856 5.51904 93.9324 5.51904 81.6134V22.2426C5.51904 9.92364 13.9436 0 24.4017 0H310.982C321.44 0 329.865 9.92364 329.865 22.2426V81.6134C329.865 93.9324 321.44 103.856 310.982 103.856ZM24.4017 3.42194C15.5414 3.42194 8.42407 11.8057 8.42407 22.2426V81.6134C8.42407 92.0503 15.5414 100.434 24.4017 100.434H310.982C319.842 100.434 326.96 92.0503 326.96 81.6134V22.2426C326.96 11.8057 319.842 3.42194 310.982 3.42194H24.4017Z" fill="url(#paint1_linear_202_18970)"/>
<path d="M18.3018 18.4789C19.3186 21.2165 22.6593 21.7299 25.7096 19.5056C28.7599 17.2813 30.3577 13.3461 29.3409 10.6085C28.3241 7.87096 24.9833 7.35761 21.9331 9.58187C18.8828 11.8061 17.285 15.7414 18.3018 18.4789Z" fill="white"/>
<path d="M12.6368 27.376C13.363 29.4292 15.3965 30.2846 16.9943 29.087C18.5921 27.8893 19.3183 25.3228 18.4468 23.2696C17.7206 21.2165 15.6871 20.361 14.0893 21.5587C12.4915 22.5852 11.9105 25.1517 12.6368 27.376Z" fill="white"/>
<path d="M99.5568 47.875H94.5795C94.4886 47.2311 94.303 46.6591 94.0227 46.1591C93.7424 45.6515 93.3826 45.2197 92.9432 44.8636C92.5038 44.5076 91.9962 44.2348 91.4205 44.0455C90.8523 43.8561 90.2348 43.7614 89.5682 43.7614C88.3636 43.7614 87.3144 44.0606 86.4205 44.6591C85.5265 45.25 84.8333 46.1136 84.3409 47.25C83.8485 48.3788 83.6023 49.75 83.6023 51.3636C83.6023 53.0227 83.8485 54.4167 84.3409 55.5455C84.8409 56.6742 85.5379 57.5265 86.4318 58.1023C87.3258 58.678 88.3598 58.9659 89.5341 58.9659C90.1932 58.9659 90.803 58.8788 91.3636 58.7045C91.9318 58.5303 92.4356 58.2765 92.875 57.9432C93.3144 57.6023 93.678 57.1894 93.9659 56.7045C94.2614 56.2197 94.4659 55.6667 94.5795 55.0455L99.5568 55.0682C99.428 56.1364 99.1061 57.1667 98.5909 58.1591C98.0833 59.1439 97.3977 60.0265 96.5341 60.8068C95.678 61.5795 94.6553 62.1932 93.4659 62.6477C92.2841 63.0947 90.947 63.3182 89.4545 63.3182C87.3788 63.3182 85.5227 62.8485 83.8864 61.9091C82.2576 60.9697 80.9697 59.6098 80.0227 57.8295C79.0833 56.0492 78.6136 53.8939 78.6136 51.3636C78.6136 48.8258 79.0909 46.6667 80.0455 44.8864C81 43.1061 82.2955 41.75 83.9318 40.8182C85.5682 39.8788 87.4091 39.4091 89.4545 39.4091C90.803 39.4091 92.053 39.5985 93.2045 39.9773C94.3636 40.3561 95.3902 40.9091 96.2841 41.6364C97.178 42.3561 97.9053 43.2386 98.4659 44.2841C99.0341 45.3295 99.3977 46.5265 99.5568 47.875ZM106.659 63H101.386L109.42 39.7273H115.761L123.784 63H118.511L112.682 45.0455H112.5L106.659 63ZM106.33 53.8523H118.784V57.6932H106.33V53.8523ZM138.679 46.4205C138.588 45.5038 138.198 44.7917 137.509 44.2841C136.819 43.7765 135.884 43.5227 134.702 43.5227C133.899 43.5227 133.221 43.6364 132.668 43.8636C132.115 44.0833 131.69 44.3902 131.395 44.7841C131.107 45.178 130.963 45.625 130.963 46.125C130.948 46.5417 131.035 46.9053 131.224 47.2159C131.421 47.5265 131.69 47.7955 132.031 48.0227C132.372 48.2424 132.766 48.4356 133.213 48.6023C133.66 48.7614 134.137 48.8977 134.645 49.0114L136.736 49.5114C137.751 49.7386 138.683 50.0417 139.531 50.4205C140.38 50.7992 141.115 51.2652 141.736 51.8182C142.357 52.3712 142.838 53.0227 143.179 53.7727C143.527 54.5227 143.705 55.3826 143.713 56.3523C143.705 57.7765 143.342 59.0114 142.622 60.0568C141.91 61.0947 140.88 61.9015 139.531 62.4773C138.19 63.0455 136.573 63.3295 134.679 63.3295C132.8 63.3295 131.164 63.0417 129.77 62.4659C128.384 61.8902 127.3 61.0379 126.52 59.9091C125.747 58.7727 125.342 57.3674 125.304 55.6932H130.065C130.118 56.4735 130.342 57.125 130.736 57.6477C131.137 58.1629 131.671 58.553 132.338 58.8182C133.012 59.0758 133.774 59.2045 134.622 59.2045C135.455 59.2045 136.179 59.0833 136.793 58.8409C137.414 58.5985 137.895 58.2614 138.236 57.8295C138.577 57.3977 138.747 56.9015 138.747 56.3409C138.747 55.8182 138.592 55.3788 138.281 55.0227C137.978 54.6667 137.531 54.3636 136.94 54.1136C136.357 53.8636 135.641 53.6364 134.793 53.4318L132.259 52.7955C130.296 52.3182 128.747 51.572 127.611 50.5568C126.474 49.5417 125.91 48.1742 125.918 46.4545C125.91 45.0455 126.285 43.8144 127.043 42.7614C127.808 41.7083 128.857 40.8864 130.19 40.2955C131.524 39.7045 133.039 39.4091 134.736 39.4091C136.463 39.4091 137.971 39.7045 139.259 40.2955C140.554 40.8864 141.562 41.7083 142.281 42.7614C143.001 43.8144 143.372 45.0341 143.395 46.4205H138.679ZM147.023 63V39.7273H151.943V49.3295H161.932V39.7273H166.841V63H161.932V53.3864H151.943V63H147.023ZM170.898 63V39.7273H180.216C181.928 39.7273 183.356 39.9811 184.5 40.4886C185.644 40.9962 186.504 41.7008 187.08 42.6023C187.655 43.4962 187.943 44.5265 187.943 45.6932C187.943 46.6023 187.761 47.4015 187.398 48.0909C187.034 48.7727 186.534 49.3333 185.898 49.7727C185.269 50.2045 184.549 50.5114 183.739 50.6932V50.9205C184.625 50.9583 185.455 51.2083 186.227 51.6705C187.008 52.1326 187.64 52.7803 188.125 53.6136C188.61 54.4394 188.852 55.4242 188.852 56.5682C188.852 57.803 188.545 58.9053 187.932 59.875C187.326 60.8371 186.428 61.5985 185.239 62.1591C184.049 62.7197 182.583 63 180.841 63H170.898ZM175.818 58.9773H179.83C181.201 58.9773 182.201 58.7159 182.83 58.1932C183.458 57.6629 183.773 56.9583 183.773 56.0795C183.773 55.4356 183.617 54.8674 183.307 54.375C182.996 53.8826 182.553 53.4962 181.977 53.2159C181.409 52.9356 180.731 52.7955 179.943 52.7955H175.818V58.9773ZM175.818 49.4659H179.466C180.14 49.4659 180.739 49.3485 181.261 49.1136C181.792 48.8712 182.208 48.5303 182.511 48.0909C182.822 47.6515 182.977 47.125 182.977 46.5114C182.977 45.6705 182.678 44.9924 182.08 44.4773C181.489 43.9621 180.648 43.7045 179.557 43.7045H175.818V49.4659ZM196.065 63H190.793L198.827 39.7273H205.168L213.19 63H207.918L202.088 45.0455H201.906L196.065 63ZM195.736 53.8523H208.19V57.6932H195.736V53.8523ZM235.432 47.875H230.455C230.364 47.2311 230.178 46.6591 229.898 46.1591C229.617 45.6515 229.258 45.2197 228.818 44.8636C228.379 44.5076 227.871 44.2348 227.295 44.0455C226.727 43.8561 226.11 43.7614 225.443 43.7614C224.239 43.7614 223.189 44.0606 222.295 44.6591C221.402 45.25 220.708 46.1136 220.216 47.25C219.723 48.3788 219.477 49.75 219.477 51.3636C219.477 53.0227 219.723 54.4167 220.216 55.5455C220.716 56.6742 221.413 57.5265 222.307 58.1023C223.201 58.678 224.235 58.9659 225.409 58.9659C226.068 58.9659 226.678 58.8788 227.239 58.7045C227.807 58.5303 228.311 58.2765 228.75 57.9432C229.189 57.6023 229.553 57.1894 229.841 56.7045C230.136 56.2197 230.341 55.6667 230.455 55.0455L235.432 55.0682C235.303 56.1364 234.981 57.1667 234.466 58.1591C233.958 59.1439 233.273 60.0265 232.409 60.8068C231.553 61.5795 230.53 62.1932 229.341 62.6477C228.159 63.0947 226.822 63.3182 225.33 63.3182C223.254 63.3182 221.398 62.8485 219.761 61.9091C218.133 60.9697 216.845 59.6098 215.898 57.8295C214.958 56.0492 214.489 53.8939 214.489 51.3636C214.489 48.8258 214.966 46.6667 215.92 44.8864C216.875 43.1061 218.17 41.75 219.807 40.8182C221.443 39.8788 223.284 39.4091 225.33 39.4091C226.678 39.4091 227.928 39.5985 229.08 39.9773C230.239 40.3561 231.265 40.9091 232.159 41.6364C233.053 42.3561 233.78 43.2386 234.341 44.2841C234.909 45.3295 235.273 46.5265 235.432 47.875ZM238.96 63V39.7273H243.881V49.9886H244.188L252.562 39.7273H258.46L249.824 50.1477L258.562 63H252.676L246.301 53.4318L243.881 56.3864V63H238.96Z" fill="#747474"/>
<defs>
<linearGradient id="paint0_linear_202_18970" x1="167.694" y1="102.121" x2="167.694" y2="1.74138" gradientUnits="userSpaceOnUse">
<stop offset="0.00153941" stop-color="#B9B9B9"/>
<stop offset="1" stop-color="white"/>
</linearGradient>
<linearGradient id="paint1_linear_202_18970" x1="167.665" y1="103.831" x2="167.665" y2="0.0314792" gradientUnits="userSpaceOnUse">
<stop offset="0.00153941" stop-color="#767676"/>
<stop offset="1" stop-color="#EAEAEA"/>
</linearGradient>
</defs>
</svg>
